{
  "trans_id": "10171013MkiB",
  "result_code": "0000",
  "result_message": "Success",
  "api_type": "FIND_BY_CRITERIA",
  "page_no": 1,
  "limit": 20,
  "data": [
    {
      "customer_id": "C222100009807",
      "customer_name": "Test API 1",
      "customer_no": "2221000035527",
      "home_store": "10010",
      "home_store_name": "MM AN PHU",
      "home_store_short_name": "MMANP",
      "customer_category_id": "4",
      "class_level1": "1",
      "class_level2": "10",
      "class_level3": "213",
      "class_level4": "220",
      "is_cod": "Y",
      "is_credit_customer": "Y",
      "is_pbd": "N",
      "is_parent": "N",
      "customer_status": "1",
      "created_date": "2021-12-01T14:31:55",
      
    }
  ],
  "total": 1
} 