﻿{
  "data": [
    {
      "store_id": "10029",
      "article_id": "123321321",
      "article_name": "Bánh Nabati",
      "article_no": "123123",
      "article_unit": "box",
      "article_price": "20.000vnd"
    },
    {
      "store_id": "10028",
      "article_id": "123321322",
      "article_name": "Sữa",
      "article_no": "123123",
      "article_unit": "box",
      "article_price": "20.000vnd"
    },

    {
      "store_id": "10029",
      "article_id": "123321322",
      "article_name": "Sữa",
      "article_no": "123123",
      "article_unit": "box",
      "article_price": "20.000vnd"
    }
  ] 
}
